<svg xmlns="http://www.w3.org/2000/svg" width="196.218" height="91.469" viewBox="0 0 196.218 91.469">
  <defs>
    <style>
      .cls-1 {
        fill: #f9f6f6;
        fill-rule: evenodd;
      }
    </style>
  </defs>
  <path id="logo.svg" class="cls-1" d="M64.641,223.414a8.791,8.791,0,0,0-7.031,3.375v-3.164H51.516v37.758h6.094v-9.914a8.594,8.594,0,0,0,7.031,3.586,8.818,8.818,0,0,0,6.094-2.321q4.686-4.217,4.688-13.5t-4.687-13.5a8.822,8.822,0,0,0-6.094-2.32h0ZM63.469,228.9a3.783,3.783,0,0,1,2.578,1.055q2.813,2.532,2.813,9.281t-2.812,9.282a3.768,3.768,0,0,1-2.578,1.054,4.933,4.933,0,0,1-3.281-1.476q-2.582-2.319-2.578-4.43v-8.859q0-2.106,2.578-4.43a4.949,4.949,0,0,1,3.281-1.477h0Zm28.875,25.946V211.812H86.25v43.032h6.094Zm22.781-31.43a11.143,11.143,0,0,0-7.734,2.531q-3.285,2.957-3.75,8.649H110.2q1.17-5.7,5.391-5.7a4.393,4.393,0,0,1,3.047,1.055,3.68,3.68,0,0,1,1.406,2.742q0,2.112-3.281,2.532-7.267,1.264-10.547,4.218a8.729,8.729,0,0,0-3.047,6.75,8.632,8.632,0,0,0,2.812,6.75,9.117,9.117,0,0,0,6.328,2.321,13.092,13.092,0,0,0,7.735-2.954,12.139,12.139,0,0,0,.937,2.532h6.328a15.028,15.028,0,0,1-1.406-6.117V233.961q0-5.269-2.812-7.805a11.473,11.473,0,0,0-7.969-2.742h0Zm4.687,22.992q-2.582,3.377-5.624,3.375a4.722,4.722,0,0,1-3.282-1.054,3.507,3.507,0,0,1-1.172-2.743,4.843,4.843,0,0,1,1.875-3.586q2.34-2.106,8.2-2.32v6.328Zm23.016,2.532q0,5.907,4.922,5.906h6.094v-5.063h-3.282q-1.641,0-1.64-1.9V229.32h4.453v-5.062h-4.453v-9.492h-6.094v9.492h-3.75v5.062h3.75v19.618Zm26.531,0q0,5.907,4.922,5.906h6.094v-5.063h-3.281q-1.642,0-1.641-1.9V229.32h4.453v-5.062h-4.453v-9.492h-6.094v9.492h-3.75v5.062h3.75v19.618Zm21.844-9.7q0,9.072,4.688,13.289a12.275,12.275,0,0,0,15.468,0q4.686-4.217,4.688-13.289,0-8.859-4.688-13.078a12.278,12.278,0,0,0-15.468,0q-4.692,4.222-4.688,13.078h0ZM203.625,228.9a4.751,4.751,0,0,1,3.281,1.266q2.577,2.324,2.578,9.07,0,6.961-2.578,9.282a4.887,4.887,0,0,1-6.562,0q-2.582-2.319-2.578-9.282,0-6.749,2.578-9.07a4.745,4.745,0,0,1,3.281-1.266h0Zm41.719,2.954H227.062v5.484h18.282v-5.484ZM62.3,271.414a11.808,11.808,0,0,0-8.2,2.742,8.161,8.161,0,0,0-2.813,6.328,7.271,7.271,0,0,0,2.344,5.7q2.109,1.9,7.734,3.164,6.092,1.478,6.094,4.429a3.517,3.517,0,0,1-1.172,2.743,5.4,5.4,0,0,1-3.75,1.265,5.062,5.062,0,0,1-3.516-1.265q-1.642-1.474-1.875-5.485H50.578q0.231,6.329,3.75,9.492a11.465,11.465,0,0,0,7.969,2.743q5.856,0,8.672-2.532a8.306,8.306,0,0,0,3.047-6.328,7.547,7.547,0,0,0-2.344-5.906,17.344,17.344,0,0,0-7.266-3.375q-6.564-1.686-6.562-4.641a3.514,3.514,0,0,1,1.172-2.742,4.956,4.956,0,0,1,6.094.422,6.561,6.561,0,0,1,1.641,3.8h6.563a12.941,12.941,0,0,0-3.984-8.227,10.141,10.141,0,0,0-7.031-2.32h0Zm23.3,25.524q0,5.907,4.922,5.906h6.094v-5.063H93.328q-1.642,0-1.641-1.9V277.32h4.453v-5.062H91.688v-9.492H85.594v9.492h-3.75v5.062h3.75v19.618Zm33.2-25.524a11.144,11.144,0,0,0-7.735,2.531q-3.285,2.957-3.75,8.649h6.563q1.17-5.7,5.39-5.7a4.392,4.392,0,0,1,3.047,1.055,3.678,3.678,0,0,1,1.407,2.742q0,2.112-3.282,2.532-7.267,1.264-10.547,4.218a8.731,8.731,0,0,0-3.046,6.75,8.632,8.632,0,0,0,2.812,6.75,9.117,9.117,0,0,0,6.328,2.321,13.092,13.092,0,0,0,7.735-2.954,12.025,12.025,0,0,0,.937,2.532h6.328a15.028,15.028,0,0,1-1.406-6.117V281.961q0-5.27-2.813-7.805a11.468,11.468,0,0,0-7.968-2.742h0Zm4.687,22.992q-2.581,3.376-5.625,3.375a4.721,4.721,0,0,1-3.281-1.054,3.5,3.5,0,0,1-1.172-2.743,4.843,4.843,0,0,1,1.875-3.586q2.34-2.106,8.2-2.32v6.328Zm23.016,2.532q0,5.907,4.922,5.906h6.093v-5.063h-3.281q-1.642,0-1.64-1.9V277.32h4.453v-5.062h-4.453v-9.492h-6.094v9.492h-3.75v5.062h3.75v19.618ZM177.338,259.6h-6.563v8.015h6.563V259.6ZM177.1,271.414h-6.094v31.43H177.1v-31.43Zm14.063,15.82q0,9.072,4.687,13.289a12.276,12.276,0,0,0,15.469,0q4.686-4.217,4.687-13.289,0-8.859-4.687-13.078a12.28,12.28,0,0,0-15.469,0q-4.691,4.223-4.687,13.078h0ZM203.587,276.9a4.755,4.755,0,0,1,3.282,1.266q2.576,2.324,2.578,9.07,0,6.962-2.578,9.282a4.889,4.889,0,0,1-6.563,0q-2.582-2.319-2.578-9.282,0-6.748,2.578-9.07a4.747,4.747,0,0,1,3.281-1.266h0Zm43.219,5.063a11.054,11.054,0,0,0-3.515-8.649,7.76,7.76,0,0,0-5.391-1.9q-4.22,0-7.969,3.8v-3.586h-6.094v31.219h6.094v-19.2a6.234,6.234,0,0,1,2.11-4.851,5.747,5.747,0,0,1,3.984-1.477,4.751,4.751,0,0,1,3.281,1.266,5.142,5.142,0,0,1,1.406,4.008v20.25h6.094V281.961Z" transform="translate(-50.594 -211.812)"/>
</svg>
